<svg width="24" height="16" viewBox="0 0 24 16" fill="none" xmlns="http://www.w3.org/2000/svg">
<path fill-rule="evenodd" clip-rule="evenodd" d="M0 16H24V14H0V16ZM0 2H24V0H0V2ZM0 9H24V7H0V9Z" fill="#AB196D"/>
</svg>
