<svg width="20" height="20" viewBox="0 0 20 20" fill="none" xmlns="http://www.w3.org/2000/svg">
<path fill-rule="evenodd" clip-rule="evenodd" d="M17.9712 8H1.99681V4.971C1.99681 4.435 2.43111 4 2.96625 4H3.99361V6H5.99042V4H13.9776V6H15.9744V4H16.9728C17.524 4 17.9712 4.448 17.9712 5V8ZM17.9712 17C17.9712 17.55 17.522 18 16.9728 18H2.99521C2.44409 18 1.99681 17.552 1.99681 17V10H17.9712V17ZM0.0638978 17.761C0.0638978 18.865 1.02137 20 2.1236 20H18.098C19.2013 20 20 18.979 20 17.761C20 17.372 19.9681 5.36 19.9681 4.708C19.9681 2.626 19.6875 2 15.9744 2V0H13.9776V2H5.99042V0H3.99361V2H1.99681C0.898562 2 0 2.9 0 4L0.0638978 17.761Z" fill="#D8DAE0"/>
</svg>
