<svg width="16" height="16" viewBox="0 0 16 16" fill="none" xmlns="http://www.w3.org/2000/svg">
<circle cx="8" cy="8" r="8" fill="#E38282"/>
<path fill-rule="evenodd" clip-rule="evenodd" d="M9.37129 7.99998L11.4284 10.0571L10.057 11.4286L7.99986 9.37141L5.94272 11.4286L4.57129 10.0571L6.62843 7.99998L4.57129 5.94284L5.94272 4.57141L7.99986 6.62855L10.057 4.57141L11.4284 5.94284L9.37129 7.99998Z" fill="white"/>
</svg>
